module gitlab.com/SlackJordan/golang_learning

go 1.22.2

require (
	github.com/andybalholm/brotli v1.1.0 // indirect
	github.com/gofiber/fiber/v2 v2.52.4 // indirect
	github.com/google/uuid v1.6.0 // indirect
	github.com/klauspost/compress v1.17.8 // indirect
	github.com/mattn/go-colorable v0.1.13 // indirect
	github.com/mattn/go-isatty v0.0.20 // indirect
	github.com/mattn/go-runewidth v0.0.15 // indirect
	github.com/rivo/uniseg v0.4.7 // indirect
	github.com/valyala/bytebufferpool v1.0.0 // indirect
	github.com/valyala/fasthttp v1.52.0 // indirect
	github.com/valyala/tcplisten v1.0.0 // indirect
	golang.org/x/sys v0.19.0 // indirect
)
